Final Project
…
main_dataset %>% drop_na()

## # A tibble: 1,402 x 15
##    price  year manufacturer model       condition cylinders fuel  odometer
##    <dbl> <dbl> <chr>        <chr>       <chr>         <dbl> <chr>    <dbl>
##  1  1000  2005 ford         explorer    good              6 gas     185000
##  2  1000  2008 chevrolet    cobalt      fair              4 gas     170000
##  3  1100  2001 saturn       sc2         fair              4 gas     241913
##  4  1100  2004 pontiac      grand prix  fair              6 gas     142000
##  5  1100  1999 jeep         cherokee    fair              6 gas     211000
##  6  1100  2002 toyota       sienna le   good              6 gas     265000
##  7  1150  2005 chevrolet    cavalier ls good              6 gas     170000
##  8  1150  2003 jeep         liberty     fair              6 gas     190000
##  9  1200  2004 chevrolet    impala      good              6 gas     205000
## 10  1200  1997 dodge        dakota      fair              8 gas     155000
## # ... with 1,392 more rows, and 7 more variables: title_status <chr>,
## #   transmission <chr>, drive <chr>, size <chr>, type <chr>, paint_color <chr>,
## #   state <chr>
…
